^C:\USERS\DELL\SOURCE\REPOS\HOMEWORK15\HOMEWORK15.CPP
C:\USERS\DELL\SOURCE\REPOS\HOMEWORK15\DEBUG\VC142.PDB
C:\USERS\DELL\SOURCE\REPOS\HOMEWORK15\DEBUG\VC142.IDB
C:\USERS\DELL\SOURCE\REPOS\HOMEWORK15\DEBUG\HOMEWORK15.OBJ
